project_extension/processor_TB.vcd
$date
	Fri May 29 15:52:24 2026
$end
$version
	Icarus Verilog
$end
$timescale
	1ps
$end
$scope module processor_TB $end
$var reg 8 ! address [7:0] $end
$var reg 1 " clk $end
$var reg 16 # instruction [15:0] $end
$var reg 1 $ reset $end
$var reg 1 % start_PC $end
$var reg 1 & write $end
$scope module my_processor $end
$var wire 16 ' bus [15:0] $end
$var wire 1 " clk $end
$var wire 1 ( dmem_in $end
$var wire 1 ) dmem_out $end
$var wire 1 * jump_en $end
$var wire 16 + program_in [15:0] $end
$var wire 1 , read_bus_en $end
$var wire 1 $ reset $end
$var wire 1 % start $end
$var wire 1 - status_reg_en $end
$var wire 1 . status_reg_out $end
$var wire 1 & write $end
$var wire 8 / write_pmem_address [7:0] $end
$var wire 16 0 tri_controller_OH [15:0] $end
$var wire 16 1 r_en_OH [15:0] $end
$var wire 16 2 ir_code [15:0] $end
$var wire 1 3 inc_PC $end
$var wire 1 4 extern_en $end
$var wire 8 5 extern_data [7:0] $end
$var wire 8 6 dmem_addr [7:0] $end
$var wire 16 7 code [15:0] $end
$var wire 1 8 brsh $end
$var wire 8 9 PC_address [7:0] $end
$var wire 1 : G_out $end
$var wire 1 ; G_en $end
$var wire 1 < A_en $end
$var wire 3 = ALU_mux [2:0] $end
$scope module PMEM $end
$var wire 1 " clk $end
$var wire 16 > data_in [15:0] $end
$var wire 1 $ reset $end
$var wire 8 ? write_address [7:0] $end
$var wire 1 & write_enable $end
$var wire 8 @ read_address [7:0] $end
$var reg 16 A data_out [15:0] $end
$var integer 32 B i [31:0] $end
$upscope $end
$scope module control $end
$var wire 1 ( DMEM_in $end
$var wire 1 ) DMEM_out $end
$var wire 1 * PC_jump_en $end
$var wire 1 , PC_read_bus_en $end
$var wire 1 " clk $end
$var wire 1 $ reset $end
$var wire 1 - status_reg_en $end
$var wire 1 . status_reg_out $end
$var wire 16 C tri_controller_OH [15:0] $end
$var wire 4 D tri_controller [3:0] $end
$var wire 1 E sreg_out $end
$var wire 1 F sreg_en $end
$var wire 16 G r_en_OH [15:0] $end
$var wire 4 H r_en [3:0] $end
$var wire 8 I next_state_wire [7:0] $end
$var wire 1 J jump_en $end
$var wire 16 K instruction [15:0] $end
$var wire 1 3 inc_PC $end
$var wire 1 4 extern_en $end
$var wire 8 L extern_data [7:0] $end
$var wire 1 M dmem_out $end
$var wire 1 N dmem_in $end
$var wire 8 O current_state_wire [7:0] $end
$var wire 1 8 brsh $end
$var wire 1 P PC_read_en $end
$var wire 1 : G_out $end
$var wire 1 ; G_en $end
$var wire 8 Q DMEM_addr [7:0] $end
$var wire 1 < A_en $end
$var wire 3 R ALU_mux [2:0] $end
$scope module decoder_en $end
$var wire 4 S fourbit [3:0] $end
$var reg 16 T onehot [15:0] $end
$upscope $end
$scope module decoder_tri $end
$var wire 4 U fourbit [3:0] $end
$var reg 16 V onehot [15:0] $end
$upscope $end
$scope module next_state $end
$var wire 1 $ reset $end
$var wire 12 W temp [11:0] $end
$var wire 8 X state [7:0] $end
$var wire 4 Y operation [3:0] $end
$var wire 16 Z inst [15:0] $end
$var wire 12 [ arguments [11:0] $end
$var reg 8 \ n_state [7:0] $end
$upscope $end
$scope module output_signal $end
$var wire 8 ] state [7:0] $end
$var wire 16 ^ code [15:0] $end
$var reg 3 _ ALU_mux [2:0] $end
$var reg 1 < A_en $end
$var reg 8 ` DMEM_addr [7:0] $end
$var reg 1 N DMEM_in $end
$var reg 1 M DMEM_out $end
$var reg 1 ; G_en $end
$var reg 1 : G_out $end
$var reg 1 J PC_jump_en $end
$var reg 1 P PC_read_bus_en $end
$var reg 1 8 brsh $end
$var reg 8 a extern_data [7:0] $end
$var reg 1 4 extern_en $end
$var reg 1 3 inc_PC $end
$var reg 4 b r_en [3:0] $end
$var reg 1 F status_reg_en $end
$var reg 1 E status_reg_out $end
$var reg 4 c tri_controller_out [3:0] $end
$upscope $end
$scope module st_reg $end
$var wire 8 d D [7:0] $end
$var wire 1 " clk $end
$var wire 1 $ reset $end
$var reg 8 e Q [7:0] $end
$upscope $end
$upscope $end
$scope module inst_PC $end
$var wire 1 f branch_taken $end
$var wire 1 8 brsh $end
$var wire 16 g bus [15:0] $end
$var wire 16 h bus_value [15:0] $end
$var wire 1 " clk $end
$var wire 1 3 inc_PC $end
$var wire 1 * jump_en $end
$var wire 1 , read_bus_en $end
$var wire 1 $ reset $end
$var wire 1 % start $end
$var reg 1 i N_flag $end
$var reg 8 j address [7:0] $end
$upscope $end
$scope module my_datapath $end
$var wire 3 k ALU_mux [2:0] $end
$var wire 1 < A_en $end
$var wire 8 l DMEM_addr [7:0] $end
$var wire 1 ( DMEM_in $end
$var wire 1 ) DMEM_out $end
$var wire 1 ; G_en $end
$var wire 1 : G_out $end
$var wire 16 m bus [15:0] $end
$var wire 1 " clk $end
$var wire 8 n extern_data [7:0] $end
$var wire 1 4 extern_en $end
$var wire 16 o r_en_OH [15:0] $end
$var wire 1 $ reset $end
$var wire 1 - status_reg_en $end
$var wire 1 . status_reg_out $end
$var wire 16 p tri_controller_OH [15:0] $end
$var wire 16 q status_reg_value [15:0] $end
$var wire 16 r extern_data_padded [15:0] $end
$var wire 16 s G_value [15:0] $end
$var wire 16 t ALU_result [15:0] $end
$var wire 16 u ALU_arg1 [15:0] $end
$scope begin gen_regs[0] $end
$var parameter 2 v i $end
$scope module my_regs $end
$var wire 1 " clk $end
$var wire 16 w d_in [15:0] $end
$var wire 1 x en $end
$var wire 1 $ reset $end
$var reg 16 y q_out [15:0] $end
$upscope $end
$upscope $end
$scope begin gen_regs[1] $end
$var parameter 2 z i $end
$scope module my_regs $end
$var wire 1 " clk $end
$var wire 16 { d_in [15:0] $end
$var wire 1 | en $end
$var wire 1 $ reset $end
$var reg 16 } q_out [15:0] $end
$upscope $end
$upscope $end
$scope begin gen_regs[2] $end
$var parameter 3 ~ i $end
$scope module my_regs $end
$var wire 1 " clk $end
$var wire 16 !" d_in [15:0] $end
$var wire 1 "" en $end
$var wire 1 $ reset $end
$var reg 16 #" q_out [15:0] $end
$upscope $end
$upscope $end
$scope begin gen_regs[3] $end
$var parameter 3 $" i $end
$scope module my_regs $end
$var wire 1 " clk $end
$var wire 16 %" d_in [15:0] $end
$var wire 1 &" en $end
$var wire 1 $ reset $end
$var reg 16 '" q_out [15:0] $end
$upscope $end
$upscope $end
$scope begin gen_regs[4] $end
$var parameter 4 (" i $end
$scope module my_regs $end
$var wire 1 " clk $end
$var wire 16 )" d_in [15:0] $end
$var wire 1 *" en $end
$var wire 1 $ reset $end
$var reg 16 +" q_out [15:0] $end
$upscope $end
$upscope $end
$scope begin gen_regs[5] $end
$var parameter 4 ," i $end
$scope module my_regs $end
$var wire 1 " clk $end
$var wire 16 -" d_in [15:0] $end
$var wire 1 ." en $end
$var wire 1 $ reset $end
$var reg 16 /" q_out [15:0] $end
$upscope $end
$upscope $end
$scope begin gen_regs[6] $end
$var parameter 4 0" i $end
$scope module my_regs $end
$var wire 1 " clk $end
$var wire 16 1" d_in [15:0] $end
$var wire 1 2" en $end
$var wire 1 $ reset $end
$var reg 16 3" q_out [15:0] $end
$upscope $end
$upscope $end
$scope begin gen_regs[7] $end
$var parameter 4 4" i $end
$scope module my_regs $end
$var wire 1 " clk $end
$var wire 16 5" d_in [15:0] $end
$var wire 1 6" en $end
$var wire 1 $ reset $end
$var reg 16 7" q_out [15:0] $end
$upscope $end
$upscope $end
$scope begin gen_regs[8] $end
$var parameter 5 8" i $end
$scope module my_regs $end
$var wire 1 " clk $end
$var wire 16 9" d_in [15:0] $end
$var wire 1 :" en $end
$var wire 1 $ reset $end
$var reg 16 ;" q_out [15:0] $end
$upscope $end
$upscope $end
$scope begin gen_regs[9] $end
$var parameter 5 <" i $end
$scope module my_regs $end
$var wire 1 " clk $end
$var wire 16 =" d_in [15:0] $end
$var wire 1 >" en $end
$var wire 1 $ reset $end
$var reg 16 ?" q_out [15:0] $end
$upscope $end
$upscope $end
$scope begin gen_regs[10] $end
$var parameter 5 @" i $end
$scope module my_regs $end
$var wire 1 " clk $end
$var wire 16 A" d_in [15:0] $end
$var wire 1 B" en $end
$var wire 1 $ reset $end
$var reg 16 C" q_out [15:0] $end
$upscope $end
$upscope $end
$scope begin gen_regs[11] $end
$var parameter 5 D" i $end
$scope module my_regs $end
$var wire 1 " clk $end
$var wire 16 E" d_in [15:0] $end
$var wire 1 F" en $end
$var wire 1 $ reset $end
$var reg 16 G" q_out [15:0] $end
$upscope $end
$upscope $end
$scope begin gen_regs[12] $end
$var parameter 5 H" i $end
$scope module my_regs $end
$var wire 1 " clk $end
$var wire 16 I" d_in [15:0] $end
$var wire 1 J" en $end
$var wire 1 $ reset $end
$var reg 16 K" q_out [15:0] $end
$upscope $end
$upscope $end
$scope begin gen_regs[13] $end
$var parameter 5 L" i $end
$scope module my_regs $end
$var wire 1 " clk $end
$var wire 16 M" d_in [15:0] $end
$var wire 1 N" en $end
$var wire 1 $ reset $end
$var reg 16 O" q_out [15:0] $end
$upscope $end
$upscope $end
$scope begin gen_regs[14] $end
$var parameter 5 P" i $end
$scope module my_regs $end
$var wire 1 " clk $end
$var wire 16 Q" d_in [15:0] $end
$var wire 1 R" en $end
$var wire 1 $ reset $end
$var reg 16 S" q_out [15:0] $end
$upscope $end
$upscope $end
$scope begin gen_tri_bufs[0] $end
$var parameter 2 T" i $end
$scope module tri_bufs $end
$var wire 1 U" en $end
$var wire 16 V" in [15:0] $end
$var reg 16 W" out [15:0] $end
$upscope $end
$upscope $end
$scope begin gen_tri_bufs[1] $end
$var parameter 2 X" i $end
$scope module tri_bufs $end
$var wire 1 Y" en $end
$var wire 16 Z" in [15:0] $end
$var reg 16 [" out [15:0] $end
$upscope $end
$upscope $end
$scope begin gen_tri_bufs[2] $end
$var parameter 3 \" i $end
$scope module tri_bufs $end
$var wire 1 ]" en $end
$var wire 16 ^" in [15:0] $end
$var reg 16 _" out [15:0] $end
$upscope $end
$upscope $end
$scope begin gen_tri_bufs[3] $end
$var parameter 3 `" i $end
$scope module tri_bufs $end
$var wire 1 a" en $end
$var wire 16 b" in [15:0] $end
$var reg 16 c" out [15:0] $end
$upscope $end
$upscope $end
$scope begin gen_tri_bufs[4] $end
$var parameter 4 d" i $end
$scope module tri_bufs $end
$var wire 1 e" en $end
$var wire 16 f" in [15:0] $end
$var reg 16 g" out [15:0] $end
$upscope $end
$upscope $end
$scope begin gen_tri_bufs[5] $end
$var parameter 4 h" i $end
$scope module tri_bufs $end
$var wire 1 i" en $end
$var wire 16 j" in [15:0] $end
$var reg 16 k" out [15:0] $end
$upscope $end
$upscope $end
$scope begin gen_tri_bufs[6] $end
$var parameter 4 l" i $end
$scope module tri_bufs $end
$var wire 1 m" en $end
$var wire 16 n" in [15:0] $end
$var reg 16 o" out [15:0] $end
$upscope $end
$upscope $end
$scope begin gen_tri_bufs[7] $end
$var parameter 4 p" i $end
$scope module tri_bufs $end
$var wire 1 q" en $end
$var wire 16 r" in [15:0] $end
$var reg 16 s" out [15:0] $end
$upscope $end
$upscope $end
$scope begin gen_tri_bufs[8] $end
$var parameter 5 t" i $end
$scope module tri_bufs $end
$var wire 1 u" en $end
$var wire 16 v" in [15:0] $end
$var reg 16 w" out [15:0] $end
$upscope $end
$upscope $end
$scope begin gen_tri_bufs[9] $end
$var parameter 5 x" i $end
$scope module tri_bufs $end
$var wire 1 y" en $end
$var wire 16 z" in [15:0] $end
$var reg 16 {" out [15:0] $end
$upscope $end
$upscope $end
$scope begin gen_tri_bufs[10] $end
$var parameter 5 |" i $end
$scope module tri_bufs $end
$var wire 1 }" en $end
$var wire 16 ~" in [15:0] $end
$var reg 16 !# out [15:0] $end
$upscope $end
$upscope $end
$scope begin gen_tri_bufs[11] $end
$var parameter 5 "# i $end
$scope module tri_bufs $end
$var wire 1 ## en $end
$var wire 16 $# in [15:0] $end
$var reg 16 %# out [15:0] $end
$upscope $end
$upscope $end
$scope begin gen_tri_bufs[12] $end
$var parameter 5 &# i $end
$scope module tri_bufs $end
$var wire 1 '# en $end
$var wire 16 (# in [15:0] $end
$var reg 16 )# out [15:0] $end
$upscope $end
$upscope $end
$scope begin gen_tri_bufs[13] $end
$var parameter 5 *# i $end
$scope module tri_bufs $end
$var wire 1 +# en $end
$var wire 16 ,# in [15:0] $end
$var reg 16 -# out [15:0] $end
$upscope $end
$upscope $end
$scope begin gen_tri_bufs[14] $end
$var parameter 5 .# i $end
$scope module tri_bufs $end
$var wire 1 /# en $end
$var wire 16 0# in [15:0] $end
$var reg 16 1# out [15:0] $end
$upscope $end
$upscope $end
$scope module A_reg $end
$var wire 1 " clk $end
$var wire 16 2# d_in [15:0] $end
$var wire 1 < en $end
$var wire 1 $ reset $end
$var reg 16 3# q_out [15:0] $end
$upscope $end
$scope module G_reg $end
$var wire 1 " clk $end
$var wire 16 4# d_in [15:0] $end
$var wire 1 ; en $end
$var wire 1 $ reset $end
$var reg 16 5# q_out [15:0] $end
$upscope $end
$scope module G_tri_state $end
$var wire 1 : en $end
$var wire 16 6# in [15:0] $end
$var reg 16 7# out [15:0] $end
$upscope $end
$scope module dmem_memory $end
$var wire 8 8# address [7:0] $end
$var wire 1 " clk $end
$var wire 16 9# d_in [15:0] $end
$var wire 1 ( re $end
$var wire 1 ) we $end
$var reg 16 :# d_out [15:0] $end
$upscope $end
$scope module external_reg $end
$var wire 1 " clk $end
$var wire 16 ;# d_in [15:0] $end
$var wire 1 4 en $end
$var wire 1 $ reset $end
$var reg 16 <# q_out [15:0] $end
$upscope $end
$scope module my_ALU $end
$var wire 16 =# A [15:0] $end
$var wire 3 ># ALU_sig [2:0] $end
$var wire 16 ?# B [15:0] $end
$var reg 16 @# result [15:0] $end
$upscope $end
$scope module sreg_tri_state $end
$var wire 1 . en $end
$var wire 16 A# in [15:0] $end
$var reg 16 B# out [15:0] $end
$upscope $end
$scope module status_reg $end
$var wire 1 " clk $end
$var wire 16 C# d_in [15:0] $end
$var wire 1 - en $end
$var wire 1 $ reset $end
$var reg 16 D# q_out [15:0] $end
$upscope $end
$upscope $end
$scope module my_inst_reg $end
$var wire 1 " clk $end
$var wire 16 E# d_in [15:0] $end
$var wire 1 $ reset $end
$var reg 16 F# q_out [15:0] $end
$upscope $end
$upscope $end
$upscope $end
$enddefinitions $end
$comment Show the parameter values. $end
$dumpall
b1110 .#
b1101 *#
b1100 &#
b1011 "#
b1010 |"
b1001 x"
b1000 t"
b111 p"
b110 l"
b101 h"
b100 d"
b11 `"
b10 \"
b1 X"
b0 T"
b1110 P"
b1101 L"
b1100 H"
b1011 D"
b1010 @"
b1001 <"
b1000 8"
b111 4"
b110 0"
b101 ,"
b100 ("
b11 $"
b10 ~
b1 z
b0 v
$end
#0
$dumpvars
bx F#
bx E#
bx D#
bx C#
b0zzzz B#
bx A#
bx @#
bx ?#
bx >#
bx =#
bx <#
b0xxxxxxxx ;#
bx :#
bx 9#
bx 8#
bx 7#
bx 6#
bx 5#
bx 4#
bx 3#
bx 2#
bx 1#
bx 0#
x/#
bx -#
bx ,#
x+#
bx )#
bx (#
x'#
bx %#
bx $#
x##
bx !#
bx ~"
x}"
bx {"
bx z"
xy"
bx w"
bx v"
xu"
bx s"
bx r"
xq"
bx o"
bx n"
xm"
bx k"
bx j"
xi"
bx g"
bx f"
xe"
bx c"
bx b"
xa"
bx _"
bx ^"
x]"
bx ["
bx Z"
xY"
bx W"
bx V"
xU"
bx S"
xR"
bx Q"
bx O"
xN"
bx M"
bx K"
xJ"
bx I"
bx G"
xF"
bx E"
bx C"
xB"
bx A"
bx ?"
x>"
bx ="
bx ;"
x:"
bx 9"
bx 7"
x6"
bx 5"
bx 3"
x2"
bx 1"
bx /"
x."
bx -"
bx +"
x*"
bx )"
bx '"
x&"
bx %"
bx #"
x""
bx !"
bx }
x|
bx {
bx y
xx
bx w
bx u
bx t
bx s
b0xxxxxxxx r
bx q
bx p
bx o
bx n
bx m
bx l
bx k
bx j
xi
bx h
bx g
xf
b0 e
b0 d
bx c
bx b
bx a
bx `
bx _
bx ^
b0 ]
b0 \
bx [
bx Z
bx Y
b0 X
b0xxxx W
bx V
bx U
bx T
bx S
bx R
bx Q
xP
b0 O
xN
xM
bx L
bx K
xJ
b0 I
bx H
bx G
xF
xE
bx D
bx C
bx B
bx A
bx @
b0 ?
b0 >
bx =
x<
x;
x:
bx 9
x8
bx 7
bx 6
bx 5
x4
x3
bx 2
bx 1
bx 0
b0 /
z.
z-
z,
b0 +
z*
z)
z(
bx '
x&
x%
0$
b0 #
0"
b0 !
$end
#5000
b1 !
b1 /
b1 ?
1"
#10000
0"
#15000
b10 !
b10 /
b10 ?
1"
#20000
0"
#25000
b11 !
b11 /
b11 ?
1"
#30000
0"
#35000
b100 !
b100 /
b100 ?
1"
#40000
0"
#45000
b101 !
b101 /
b101 ?
1"
#50000
0"
#55000
b110 !
b110 /
b110 ?
1"
#60000
0"
#65000
b111 !
b111 /
b111 ?
1"
#70000
0"
#75000
b1000 !
b1000 /
b1000 ?
1"
#80000
0"
#85000
b1001 !
b1001 /
b1001 ?
1"
#90000
0"
#95000
b1010 !
b1010 /
b1010 ?
1"
#100000
0"
#105000
b0 9
b0 @
b0 j
1%
0&
1"
