project_extension/processor_TB.vcd
$date
	Fri May 29 16:01:21 2026
$end
$version
	Icarus Verilog
$end
$timescale
	1ps
$end
$scope module processor_TB $end
$var reg 8 ! address [7:0] $end
$var reg 1 " clk $end
$var reg 16 # instruction [15:0] $end
$var reg 1 $ reset $end
$var reg 1 % start_PC $end
$var reg 1 & write $end
$var integer 32 ' i [31:0] $end
$scope module my_processor $end
$var wire 16 ( bus [15:0] $end
$var wire 1 " clk $end
$var wire 1 ) dmem_in $end
$var wire 1 * dmem_out $end
$var wire 1 + jump_en $end
$var wire 16 , program_in [15:0] $end
$var wire 1 - read_bus_en $end
$var wire 1 $ reset $end
$var wire 1 % start $end
$var wire 1 . status_reg_en $end
$var wire 1 / status_reg_out $end
$var wire 1 & write $end
$var wire 8 0 write_pmem_address [7:0] $end
$var wire 16 1 tri_controller_OH [15:0] $end
$var wire 16 2 r_en_OH [15:0] $end
$var wire 16 3 ir_code [15:0] $end
$var wire 1 4 inc_PC $end
$var wire 1 5 extern_en $end
$var wire 8 6 extern_data [7:0] $end
$var wire 8 7 dmem_addr [7:0] $end
$var wire 16 8 code [15:0] $end
$var wire 1 9 brsh $end
$var wire 8 : PC_address [7:0] $end
$var wire 1 ; G_out $end
$var wire 1 < G_en $end
$var wire 1 = A_en $end
$var wire 3 > ALU_mux [2:0] $end
$scope module PMEM $end
$var wire 1 " clk $end
$var wire 16 ? data_in [15:0] $end
$var wire 1 $ reset $end
$var wire 8 @ write_address [7:0] $end
$var wire 1 & write_enable $end
$var wire 8 A read_address [7:0] $end
$var reg 16 B data_out [15:0] $end
$var integer 32 C i [31:0] $end
$upscope $end
$scope module control $end
$var wire 1 ) DMEM_in $end
$var wire 1 * DMEM_out $end
$var wire 1 + PC_jump_en $end
$var wire 1 - PC_read_bus_en $end
$var wire 1 " clk $end
$var wire 1 $ reset $end
$var wire 1 . status_reg_en $end
$var wire 1 / status_reg_out $end
$var wire 16 D tri_controller_OH [15:0] $end
$var wire 4 E tri_controller [3:0] $end
$var wire 1 F sreg_out $end
$var wire 1 G sreg_en $end
$var wire 16 H r_en_OH [15:0] $end
$var wire 4 I r_en [3:0] $end
$var wire 8 J next_state_wire [7:0] $end
$var wire 1 K jump_en $end
$var wire 16 L instruction [15:0] $end
$var wire 1 4 inc_PC $end
$var wire 1 5 extern_en $end
$var wire 8 M extern_data [7:0] $end
$var wire 1 N dmem_out $end
$var wire 1 O dmem_in $end
$var wire 8 P current_state_wire [7:0] $end
$var wire 1 9 brsh $end
$var wire 1 Q PC_read_en $end
$var wire 1 ; G_out $end
$var wire 1 < G_en $end
$var wire 8 R DMEM_addr [7:0] $end
$var wire 1 = A_en $end
$var wire 3 S ALU_mux [2:0] $end
$scope module decoder_en $end
$var wire 4 T fourbit [3:0] $end
$var reg 16 U onehot [15:0] $end
$upscope $end
$scope module decoder_tri $end
$var wire 4 V fourbit [3:0] $end
$var reg 16 W onehot [15:0] $end
$upscope $end
$scope module next_state $end
$var wire 1 $ reset $end
$var wire 12 X temp [11:0] $end
$var wire 8 Y state [7:0] $end
$var wire 4 Z operation [3:0] $end
$var wire 16 [ inst [15:0] $end
$var wire 12 \ arguments [11:0] $end
$var reg 8 ] n_state [7:0] $end
$upscope $end
$scope module output_signal $end
$var wire 8 ^ state [7:0] $end
$var wire 16 _ code [15:0] $end
$var reg 3 ` ALU_mux [2:0] $end
$var reg 1 = A_en $end
$var reg 8 a DMEM_addr [7:0] $end
$var reg 1 O DMEM_in $end
$var reg 1 N DMEM_out $end
$var reg 1 < G_en $end
$var reg 1 ; G_out $end
$var reg 1 K PC_jump_en $end
$var reg 1 Q PC_read_bus_en $end
$var reg 1 9 brsh $end
$var reg 8 b extern_data [7:0] $end
$var reg 1 5 extern_en $end
$var reg 1 4 inc_PC $end
$var reg 4 c r_en [3:0] $end
$var reg 1 G status_reg_en $end
$var reg 1 F status_reg_out $end
$var reg 4 d tri_controller_out [3:0] $end
$upscope $end
$scope module st_reg $end
$var wire 8 e D [7:0] $end
$var wire 1 " clk $end
$var wire 1 $ reset $end
$var reg 8 f Q [7:0] $end
$upscope $end
$upscope $end
$scope module inst_PC $end
$var wire 1 g branch_taken $end
$var wire 1 9 brsh $end
$var wire 16 h bus [15:0] $end
$var wire 16 i bus_value [15:0] $end
$var wire 1 " clk $end
$var wire 1 4 inc_PC $end
$var wire 1 + jump_en $end
$var wire 1 - read_bus_en $end
$var wire 1 $ reset $end
$var wire 1 % start $end
$var reg 1 j N_flag $end
$var reg 8 k address [7:0] $end
$upscope $end
$scope module my_datapath $end
$var wire 3 l ALU_mux [2:0] $end
$var wire 1 = A_en $end
$var wire 8 m DMEM_addr [7:0] $end
$var wire 1 ) DMEM_in $end
$var wire 1 * DMEM_out $end
$var wire 1 < G_en $end
$var wire 1 ; G_out $end
$var wire 16 n bus [15:0] $end
$var wire 1 " clk $end
$var wire 8 o extern_data [7:0] $end
$var wire 1 5 extern_en $end
$var wire 16 p r_en_OH [15:0] $end
$var wire 1 $ reset $end
$var wire 1 . status_reg_en $end
$var wire 1 / status_reg_out $end
$var wire 16 q tri_controller_OH [15:0] $end
$var wire 16 r status_reg_value [15:0] $end
$var wire 16 s extern_data_padded [15:0] $end
$var wire 16 t G_value [15:0] $end
$var wire 16 u ALU_result [15:0] $end
$var wire 16 v ALU_arg1 [15:0] $end
$scope begin gen_regs[0] $end
$var parameter 2 w i $end
$scope module my_regs $end
$var wire 1 " clk $end
$var wire 16 x d_in [15:0] $end
$var wire 1 y en $end
$var wire 1 $ reset $end
$var reg 16 z q_out [15:0] $end
$upscope $end
$upscope $end
$scope begin gen_regs[1] $end
$var parameter 2 { i $end
$scope module my_regs $end
$var wire 1 " clk $end
$var wire 16 | d_in [15:0] $end
$var wire 1 } en $end
$var wire 1 $ reset $end
$var reg 16 ~ q_out [15:0] $end
$upscope $end
$upscope $end
$scope begin gen_regs[2] $end
$var parameter 3 !" i $end
$scope module my_regs $end
$var wire 1 " clk $end
$var wire 16 "" d_in [15:0] $end
$var wire 1 #" en $end
$var wire 1 $ reset $end
$var reg 16 $" q_out [15:0] $end
$upscope $end
$upscope $end
$scope begin gen_regs[3] $end
$var parameter 3 %" i $end
$scope module my_regs $end
$var wire 1 " clk $end
$var wire 16 &" d_in [15:0] $end
$var wire 1 '" en $end
$var wire 1 $ reset $end
$var reg 16 (" q_out [15:0] $end
$upscope $end
$upscope $end
$scope begin gen_regs[4] $end
$var parameter 4 )" i $end
$scope module my_regs $end
$var wire 1 " clk $end
$var wire 16 *" d_in [15:0] $end
$var wire 1 +" en $end
$var wire 1 $ reset $end
$var reg 16 ," q_out [15:0] $end
$upscope $end
$upscope $end
$scope begin gen_regs[5] $end
$var parameter 4 -" i $end
$scope module my_regs $end
$var wire 1 " clk $end
$var wire 16 ." d_in [15:0] $end
$var wire 1 /" en $end
$var wire 1 $ reset $end
$var reg 16 0" q_out [15:0] $end
$upscope $end
$upscope $end
$scope begin gen_regs[6] $end
$var parameter 4 1" i $end
$scope module my_regs $end
$var wire 1 " clk $end
$var wire 16 2" d_in [15:0] $end
$var wire 1 3" en $end
$var wire 1 $ reset $end
$var reg 16 4" q_out [15:0] $end
$upscope $end
$upscope $end
$scope begin gen_regs[7] $end
$var parameter 4 5" i $end
$scope module my_regs $end
$var wire 1 " clk $end
$var wire 16 6" d_in [15:0] $end
$var wire 1 7" en $end
$var wire 1 $ reset $end
$var reg 16 8" q_out [15:0] $end
$upscope $end
$upscope $end
$scope begin gen_regs[8] $end
$var parameter 5 9" i $end
$scope module my_regs $end
$var wire 1 " clk $end
$var wire 16 :" d_in [15:0] $end
$var wire 1 ;" en $end
$var wire 1 $ reset $end
$var reg 16 <" q_out [15:0] $end
$upscope $end
$upscope $end
$scope begin gen_regs[9] $end
$var parameter 5 =" i $end
$scope module my_regs $end
$var wire 1 " clk $end
$var wire 16 >" d_in [15:0] $end
$var wire 1 ?" en $end
$var wire 1 $ reset $end
$var reg 16 @" q_out [15:0] $end
$upscope $end
$upscope $end
$scope begin gen_regs[10] $end
$var parameter 5 A" i $end
$scope module my_regs $end
$var wire 1 " clk $end
$var wire 16 B" d_in [15:0] $end
$var wire 1 C" en $end
$var wire 1 $ reset $end
$var reg 16 D" q_out [15:0] $end
$upscope $end
$upscope $end
$scope begin gen_regs[11] $end
$var parameter 5 E" i $end
$scope module my_regs $end
$var wire 1 " clk $end
$var wire 16 F" d_in [15:0] $end
$var wire 1 G" en $end
$var wire 1 $ reset $end
$var reg 16 H" q_out [15:0] $end
$upscope $end
$upscope $end
$scope begin gen_regs[12] $end
$var parameter 5 I" i $end
$scope module my_regs $end
$var wire 1 " clk $end
$var wire 16 J" d_in [15:0] $end
$var wire 1 K" en $end
$var wire 1 $ reset $end
$var reg 16 L" q_out [15:0] $end
$upscope $end
$upscope $end
$scope begin gen_regs[13] $end
$var parameter 5 M" i $end
$scope module my_regs $end
$var wire 1 " clk $end
$var wire 16 N" d_in [15:0] $end
$var wire 1 O" en $end
$var wire 1 $ reset $end
$var reg 16 P" q_out [15:0] $end
$upscope $end
$upscope $end
$scope begin gen_regs[14] $end
$var parameter 5 Q" i $end
$scope module my_regs $end
$var wire 1 " clk $end
$var wire 16 R" d_in [15:0] $end
$var wire 1 S" en $end
$var wire 1 $ reset $end
$var reg 16 T" q_out [15:0] $end
$upscope $end
$upscope $end
$scope begin gen_tri_bufs[0] $end
$var parameter 2 U" i $end
$scope module tri_bufs $end
$var wire 1 V" en $end
$var wire 16 W" in [15:0] $end
$var reg 16 X" out [15:0] $end
$upscope $end
$upscope $end
$scope begin gen_tri_bufs[1] $end
$var parameter 2 Y" i $end
$scope module tri_bufs $end
$var wire 1 Z" en $end
$var wire 16 [" in [15:0] $end
$var reg 16 \" out [15:0] $end
$upscope $end
$upscope $end
$scope begin gen_tri_bufs[2] $end
$var parameter 3 ]" i $end
$scope module tri_bufs $end
$var wire 1 ^" en $end
$var wire 16 _" in [15:0] $end
$var reg 16 `" out [15:0] $end
$upscope $end
$upscope $end
$scope begin gen_tri_bufs[3] $end
$var parameter 3 a" i $end
$scope module tri_bufs $end
$var wire 1 b" en $end
$var wire 16 c" in [15:0] $end
$var reg 16 d" out [15:0] $end
$upscope $end
$upscope $end
$scope begin gen_tri_bufs[4] $end
$var parameter 4 e" i $end
$scope module tri_bufs $end
$var wire 1 f" en $end
$var wire 16 g" in [15:0] $end
$var reg 16 h" out [15:0] $end
$upscope $end
$upscope $end
$scope begin gen_tri_bufs[5] $end
$var parameter 4 i" i $end
$scope module tri_bufs $end
$var wire 1 j" en $end
$var wire 16 k" in [15:0] $end
$var reg 16 l" out [15:0] $end
$upscope $end
$upscope $end
$scope begin gen_tri_bufs[6] $end
$var parameter 4 m" i $end
$scope module tri_bufs $end
$var wire 1 n" en $end
$var wire 16 o" in [15:0] $end
$var reg 16 p" out [15:0] $end
$upscope $end
$upscope $end
$scope begin gen_tri_bufs[7] $end
$var parameter 4 q" i $end
$scope module tri_bufs $end
$var wire 1 r" en $end
$var wire 16 s" in [15:0] $end
$var reg 16 t" out [15:0] $end
$upscope $end
$upscope $end
$scope begin gen_tri_bufs[8] $end
$var parameter 5 u" i $end
$scope module tri_bufs $end
$var wire 1 v" en $end
$var wire 16 w" in [15:0] $end
$var reg 16 x" out [15:0] $end
$upscope $end
$upscope $end
$scope begin gen_tri_bufs[9] $end
$var parameter 5 y" i $end
$scope module tri_bufs $end
$var wire 1 z" en $end
$var wire 16 {" in [15:0] $end
$var reg 16 |" out [15:0] $end
$upscope $end
$upscope $end
$scope begin gen_tri_bufs[10] $end
$var parameter 5 }" i $end
$scope module tri_bufs $end
$var wire 1 ~" en $end
$var wire 16 !# in [15:0] $end
$var reg 16 "# out [15:0] $end
$upscope $end
$upscope $end
$scope begin gen_tri_bufs[11] $end
$var parameter 5 ## i $end
$scope module tri_bufs $end
$var wire 1 $# en $end
$var wire 16 %# in [15:0] $end
$var reg 16 &# out [15:0] $end
$upscope $end
$upscope $end
$scope begin gen_tri_bufs[12] $end
$var parameter 5 '# i $end
$scope module tri_bufs $end
$var wire 1 (# en $end
$var wire 16 )# in [15:0] $end
$var reg 16 *# out [15:0] $end
$upscope $end
$upscope $end
$scope begin gen_tri_bufs[13] $end
$var parameter 5 +# i $end
$scope module tri_bufs $end
$var wire 1 ,# en $end
$var wire 16 -# in [15:0] $end
$var reg 16 .# out [15:0] $end
$upscope $end
$upscope $end
$scope begin gen_tri_bufs[14] $end
$var parameter 5 /# i $end
$scope module tri_bufs $end
$var wire 1 0# en $end
$var wire 16 1# in [15:0] $end
$var reg 16 2# out [15:0] $end
$upscope $end
$upscope $end
$scope module A_reg $end
$var wire 1 " clk $end
$var wire 16 3# d_in [15:0] $end
$var wire 1 = en $end
$var wire 1 $ reset $end
$var reg 16 4# q_out [15:0] $end
$upscope $end
$scope module G_reg $end
$var wire 1 " clk $end
$var wire 16 5# d_in [15:0] $end
$var wire 1 < en $end
$var wire 1 $ reset $end
$var reg 16 6# q_out [15:0] $end
$upscope $end
$scope module G_tri_state $end
$var wire 1 ; en $end
$var wire 16 7# in [15:0] $end
$var reg 16 8# out [15:0] $end
$upscope $end
$scope module dmem_memory $end
$var wire 8 9# address [7:0] $end
$var wire 1 " clk $end
$var wire 16 :# d_in [15:0] $end
$var wire 1 ) re $end
$var wire 1 * we $end
$var reg 16 ;# d_out [15:0] $end
$upscope $end
$scope module external_reg $end
$var wire 1 " clk $end
$var wire 16 <# d_in [15:0] $end
$var wire 1 5 en $end
$var wire 1 $ reset $end
$var reg 16 =# q_out [15:0] $end
$upscope $end
$scope module my_ALU $end
$var wire 16 ># A [15:0] $end
$var wire 3 ?# ALU_sig [2:0] $end
$var wire 16 @# B [15:0] $end
$var reg 16 A# result [15:0] $end
$upscope $end
$scope module sreg_tri_state $end
$var wire 1 / en $end
$var wire 16 B# in [15:0] $end
$var reg 16 C# out [15:0] $end
$upscope $end
$scope module status_reg $end
$var wire 1 " clk $end
$var wire 16 D# d_in [15:0] $end
$var wire 1 . en $end
$var wire 1 $ reset $end
$var reg 16 E# q_out [15:0] $end
$upscope $end
$upscope $end
$scope module my_inst_reg $end
$var wire 1 " clk $end
$var wire 16 F# d_in [15:0] $end
$var wire 1 $ reset $end
$var reg 16 G# q_out [15:0] $end
$upscope $end
$upscope $end
$upscope $end
$enddefinitions $end
$comment Show the parameter values. $end
$dumpall
b1110 /#
b1101 +#
b1100 '#
b1011 ##
b1010 }"
b1001 y"
b1000 u"
b111 q"
b110 m"
b101 i"
b100 e"
b11 a"
b10 ]"
b1 Y"
b0 U"
b1110 Q"
b1101 M"
b1100 I"
b1011 E"
b1010 A"
b1001 ="
b1000 9"
b111 5"
b110 1"
b101 -"
b100 )"
b11 %"
b10 !"
b1 {
b0 w
$end
#0
$dumpvars
b0 G#
b0 F#
b0 E#
bx D#
b0zzzz C#
b0 B#
bx A#
bx @#
bx ?#
b0 >#
b0 =#
b0xxxxxxxx <#
bx ;#
bx :#
bx 9#
b0zzzz 8#
b0 7#
b0 6#
bx 5#
b0 4#
bx 3#
b0zzzz 2#
b0 1#
x0#
b0zzzz .#
b0 -#
x,#
b0zzzz *#
b0 )#
x(#
b0zzzz &#
b0 %#
x$#
b0zzzz "#
b0 !#
x~"
b0zzzz |"
b0 {"
xz"
b0zzzz x"
b0 w"
xv"
b0zzzz t"
b0 s"
xr"
b0zzzz p"
b0 o"
xn"
b0zzzz l"
b0 k"
xj"
b0zzzz h"
b0 g"
xf"
b0zzzz d"
b0 c"
xb"
b0zzzz `"
b0 _"
x^"
b0zzzz \"
b0 ["
xZ"
b0zzzz X"
b0 W"
xV"
b0 T"
xS"
bx R"
b0 P"
xO"
bx N"
b0 L"
xK"
bx J"
b0 H"
xG"
bx F"
b0 D"
xC"
bx B"
b0 @"
x?"
bx >"
b0 <"
x;"
bx :"
b0 8"
x7"
bx 6"
b0 4"
x3"
bx 2"
b0 0"
x/"
bx ."
b0 ,"
x+"
bx *"
b0 ("
x'"
bx &"
b0 $"
x#"
bx ""
b0 ~
x}
bx |
b0 z
xy
bx x
b0 v
bx u
b0 t
b0xxxxxxxx s
b0 r
bx q
bx p
bx o
bx n
bx m
bx l
b0 k
xj
bx i
bx h
xg
b0 f
bz e
bx d
bx c
bx b
bx a
bx `
b0 _
b0 ^
bz ]
b0 \
b0 [
b0 Z
b0 Y
b0 X
bx W
bx V
bx U
bx T
bx S
bx R
xQ
b0 P
xO
xN
bx M
b0 L
xK
bz J
bx I
bx H
xG
xF
bx E
bx D
b100000000 C
b0 B
b0 A
b0 @
b100000001 ?
bx >
x=
x<
x;
b0 :
x9
b0 8
bx 7
bx 6
x5
x4
b0 3
bx 2
bx 1
b0 0
z/
z.
z-
b100000001 ,
z+
z*
z)
bx (
bx '
1&
0%
1$
b100000001 #
0"
b0 !
$end
#5000
b100000000 C
1"
#10000
0"
#15000
b100000000 C
1"
#20000
b1 J
b1 ]
b1 e
0"
0$
#25000
1y
0}
0#"
0'"
0+"
0/"
03"
07"
0;"
0?"
0C"
0G"
0K"
0O"
0S"
b1 2
b1 H
b1 U
b1 p
14
15
b0 s
b0 <#
b0 6
b0 M
b0 b
b0 o
b0 I
b0 T
b0 c
b0 J
b0 ]
b0 e
b10000 X
b1 P
b1 Y
b1 ^
b1 f
1"
#30000
0"
b0 '
#35000
b1 J
b1 ]
b1 e
b1 :
b1 A
b1 k
b0 X
b0 P
b0 Y
b0 ^
b0 f
bx z
bx W"
b1 '
1"
#40000
0"
#45000
b0 J
b0 ]
b0 e
b10000 X
b1 P
b1 Y
b1 ^
b1 f
b10 :
b10 A
b10 k
b1000000010 #
b1000000010 ,
b1000000010 ?
b10 '
b1 !
b1 0
b1 @
1"
#50000
0"
#55000
b1 J
b1 ]
b1 e
b11 :
b11 A
b11 k
b0 X
b0 P
b0 Y
b0 ^
b0 f
b1100001000 #
b1100001000 ,
b1100001000 ?
b11 '
b10 !
b10 0
b10 @
1"
#60000
0"
#65000
b0 J
b0 ]
b0 e
b10000 X
b1 P
b1 Y
b1 ^
b1 f
b100 :
b100 A
b100 k
b10000010000 #
b10000010000 ,
b10000010000 ?
b100 '
b11 !
b11 0
b11 @
1"
#70000
0"
#75000
b1 J
b1 ]
b1 e
b101 :
b101 A
b101 k
b0 X
b0 P
b0 Y
b0 ^
b0 f
0&
1"
#80000
0"
#85000
b0 J
b0 ]
b0 e
b10000 X
b1 P
b1 Y
b1 ^
b1 f
b0 :
b0 A
b0 k
1%
1"
#90000
0"
#95000
b1 J
b1 ]
b1 e
b100000001 8
b100000001 B
b100000001 F#
b1 :
b1 A
b1 k
b0 X
b0 P
b0 Y
b0 ^
b0 f
0%
1"
#100000
0"
#105000
0y
1}
b10 2
b10 H
b10 U
b10 p
b1 s
b1 <#
b1 6
b1 M
b1 b
b1 o
b1 I
b1 T
b1 c
b0 J
b0 ]
b0 e
b100000001 \
b10000 X
b1 P
b1 Y
b1 ^
b1 f
b100000001 3
b100000001 L
b100000001 [
b100000001 _
b100000001 G#
b10 :
b10 A
b10 k
1"
#110000
0"
#115000
b1 J
b1 ]
b1 e
b1000000010 8
b1000000010 B
b1000000010 F#
b11 :
b11 A
b11 k
b0 X
b0 P
b0 Y
b0 ^
b0 f
b1 =#
bx ~
bx ["
1"
#120000
0"
#125000
0}
1#"
b100 2
b100 H
b100 U
b100 p
b10 s
b10 <#
b10 6
b10 M
b10 b
b10 o
b10 I
b10 T
b10 c
b0 J
b0 ]
b0 e
b1000000010 \
b10000 X
b1 P
b1 Y
b1 ^
b1 f
b1000000010 3
b1000000010 L
b1000000010 [
b1000000010 _
b1000000010 G#
b100 :
b100 A
b100 k
b1100001000 8
b1100001000 B
b1100001000 F#
1"
#130000
0"
#135000
b1100001000 \
b1 J
b1 ]
b1 e
b0 8
b0 B
b0 F#
b101 :
b101 A
b101 k
b1100001000 3
b1100001000 L
b1100001000 [
b1100001000 _
b1100001000 G#
b0 X
b0 P
b0 Y
b0 ^
b0 f
b10 =#
bx $"
bx _"
1"
#140000
0"
#145000
1y
0#"
b1 2
b1 H
b1 U
b1 p
b0 s
b0 <#
b0 6
b0 M
b0 b
b0 o
b0 I
b0 T
b0 c
b0 J
b0 ]
b0 e
b0 \
b10000 X
b1 P
b1 Y
b1 ^
b1 f
b0 3
b0 L
b0 [
b0 _
b0 G#
b110 :
b110 A
b110 k
1"
#150000
0"
#155000
b1 J
b1 ]
b1 e
b111 :
b111 A
b111 k
b0 X
b0 P
b0 Y
b0 ^
b0 f
b0 =#
1"
#160000
0"
#165000
b0 J
b0 ]
b0 e
b10000 X
b1 P
b1 Y
b1 ^
b1 f
b1000 :
b1000 A
b1000 k
1"
#170000
0"
#175000
b1 J
b1 ]
b1 e
b1001 :
b1001 A
b1001 k
b0 X
b0 P
b0 Y
b0 ^
b0 f
1"
#180000
0"
#185000
b0 J
b0 ]
b0 e
b10000 X
b1 P
b1 Y
b1 ^
b1 f
b1010 :
b1010 A
b1010 k
1"
#190000
0"
#195000
b1 J
b1 ]
b1 e
b1011 :
b1011 A
b1011 k
b0 X
b0 P
b0 Y
b0 ^
b0 f
1"
#200000
0"
#205000
b0 J
b0 ]
b0 e
b10000 X
b1 P
b1 Y
b1 ^
b1 f
b1100 :
b1100 A
b1100 k
1"
#210000
0"
#215000
b1 J
b1 ]
b1 e
b1101 :
b1101 A
b1101 k
b0 X
b0 P
b0 Y
b0 ^
b0 f
1"
#220000
0"
#225000
b0 J
b0 ]
b0 e
b10000 X
b1 P
b1 Y
b1 ^
b1 f
b1110 :
b1110 A
b1110 k
1"
#230000
0"
#235000
b1 J
b1 ]
b1 e
b1111 :
b1111 A
b1111 k
b0 X
b0 P
b0 Y
b0 ^
b0 f
1"
#240000
0"
#245000
b0 J
b0 ]
b0 e
b10000 X
b1 P
b1 Y
b1 ^
b1 f
b10000 :
b10000 A
b10000 k
1"
#250000
0"
#255000
b1 J
b1 ]
b1 e
b10001 :
b10001 A
b10001 k
b0 X
b0 P
b0 Y
b0 ^
b0 f
1"
#260000
0"
#265000
b0 J
b0 ]
b0 e
b10000 X
b1 P
b1 Y
b1 ^
b1 f
b10010 :
b10010 A
b10010 k
1"
#270000
0"
#275000
b1 J
b1 ]
b1 e
b10011 :
b10011 A
b10011 k
b0 X
b0 P
b0 Y
b0 ^
b0 f
1"
#280000
0"
#285000
b0 J
b0 ]
b0 e
b10000 X
b1 P
b1 Y
b1 ^
b1 f
b10100 :
b10100 A
b10100 k
1"
#290000
0"
#295000
b1 J
b1 ]
b1 e
b10101 :
b10101 A
b10101 k
b0 X
b0 P
b0 Y
b0 ^
b0 f
1"
#300000
0"
#305000
b0 J
b0 ]
b0 e
b10000 X
b1 P
b1 Y
b1 ^
b1 f
b10110 :
b10110 A
b10110 k
1"
#310000
0"
#315000
b1 J
b1 ]
b1 e
b10111 :
b10111 A
b10111 k
b0 X
b0 P
b0 Y
b0 ^
b0 f
1"
#320000
0"
#325000
b0 J
b0 ]
b0 e
b10000 X
b1 P
b1 Y
b1 ^
b1 f
b11000 :
b11000 A
b11000 k
1"
#330000
0"
#335000
b1 J
b1 ]
b1 e
b11001 :
b11001 A
b11001 k
b0 X
b0 P
b0 Y
b0 ^
b0 f
1"
#340000
0"
#345000
b0 J
b0 ]
b0 e
b10000 X
b1 P
b1 Y
b1 ^
b1 f
b11010 :
b11010 A
b11010 k
1"
#350000
0"
#355000
b1 J
b1 ]
b1 e
b11011 :
b11011 A
b11011 k
b0 X
b0 P
b0 Y
b0 ^
b0 f
1"
#360000
0"
#365000
b0 J
b0 ]
b0 e
b10000 X
b1 P
b1 Y
b1 ^
b1 f
b11100 :
b11100 A
b11100 k
1"
#370000
0"
#375000
b1 J
b1 ]
b1 e
b11101 :
b11101 A
b11101 k
b0 X
b0 P
b0 Y
b0 ^
b0 f
1"
#380000
0"
#385000
b0 J
b0 ]
b0 e
b10000 X
b1 P
b1 Y
b1 ^
b1 f
b11110 :
b11110 A
b11110 k
1"
#390000
0"
#395000
b1 J
b1 ]
b1 e
b11111 :
b11111 A
b11111 k
b0 X
b0 P
b0 Y
b0 ^
b0 f
1"
#400000
0"
#405000
b0 J
b0 ]
b0 e
b10000 X
b1 P
b1 Y
b1 ^
b1 f
b100000 :
b100000 A
b100000 k
1"
#410000
0"
#415000
b1 J
b1 ]
b1 e
b100001 :
b100001 A
b100001 k
b0 X
b0 P
b0 Y
b0 ^
b0 f
1"
#420000
0"
#425000
b0 J
b0 ]
b0 e
b10000 X
b1 P
b1 Y
b1 ^
b1 f
b100010 :
b100010 A
b100010 k
1"
#430000
0"
#435000
b1 J
b1 ]
b1 e
b100011 :
b100011 A
b100011 k
b0 X
b0 P
b0 Y
b0 ^
b0 f
1"
#440000
0"
#445000
b0 J
b0 ]
b0 e
b10000 X
b1 P
b1 Y
b1 ^
b1 f
b100100 :
b100100 A
b100100 k
1"
#450000
0"
#455000
b1 J
b1 ]
b1 e
b100101 :
b100101 A
b100101 k
b0 X
b0 P
b0 Y
b0 ^
b0 f
1"
#460000
0"
#465000
b0 J
b0 ]
b0 e
b10000 X
b1 P
b1 Y
b1 ^
b1 f
b100110 :
b100110 A
b100110 k
1"
#470000
0"
#475000
b1 J
b1 ]
b1 e
b100111 :
b100111 A
b100111 k
b0 X
b0 P
b0 Y
b0 ^
b0 f
1"
#480000
0"
#485000
b0 J
b0 ]
b0 e
b10000 X
b1 P
b1 Y
b1 ^
b1 f
b101000 :
b101000 A
b101000 k
1"
#490000
0"
#495000
b1 J
b1 ]
b1 e
b101001 :
b101001 A
b101001 k
b0 X
b0 P
b0 Y
b0 ^
b0 f
1"
#500000
0"
#505000
b0 J
b0 ]
b0 e
b10000 X
b1 P
b1 Y
b1 ^
b1 f
b101010 :
b101010 A
b101010 k
1"
#510000
0"
#515000
b1 J
b1 ]
b1 e
b101011 :
b101011 A
b101011 k
b0 X
b0 P
b0 Y
b0 ^
b0 f
1"
#520000
0"
#525000
b0 J
b0 ]
b0 e
b10000 X
b1 P
b1 Y
b1 ^
b1 f
b101100 :
b101100 A
b101100 k
1"
#530000
0"
#535000
b1 J
b1 ]
b1 e
b101101 :
b101101 A
b101101 k
b0 X
b0 P
b0 Y
b0 ^
b0 f
1"
#540000
0"
#545000
b0 J
b0 ]
b0 e
b10000 X
b1 P
b1 Y
b1 ^
b1 f
b101110 :
b101110 A
b101110 k
1"
#550000
0"
#555000
b1 J
b1 ]
b1 e
b101111 :
b101111 A
b101111 k
b0 X
b0 P
b0 Y
b0 ^
b0 f
1"
#560000
0"
#565000
b0 J
b0 ]
b0 e
b10000 X
b1 P
b1 Y
b1 ^
b1 f
b110000 :
b110000 A
b110000 k
1"
#570000
0"
#575000
b1 J
b1 ]
b1 e
b110001 :
b110001 A
b110001 k
b0 X
b0 P
b0 Y
b0 ^
b0 f
1"
#580000
0"
#585000
b0 J
b0 ]
b0 e
b10000 X
b1 P
b1 Y
b1 ^
b1 f
b110010 :
b110010 A
b110010 k
1"
#590000
0"
#595000
b1 J
b1 ]
b1 e
b110011 :
b110011 A
b110011 k
b0 X
b0 P
b0 Y
b0 ^
b0 f
1"
#600000
0"
#605000
b0 J
b0 ]
b0 e
b10000 X
b1 P
b1 Y
b1 ^
b1 f
b110100 :
b110100 A
b110100 k
1"
#610000
0"
#615000
b1 J
b1 ]
b1 e
b110101 :
b110101 A
b110101 k
b0 X
b0 P
b0 Y
b0 ^
b0 f
1"
#620000
0"
#625000
b0 J
b0 ]
b0 e
b10000 X
b1 P
b1 Y
b1 ^
b1 f
b110110 :
b110110 A
b110110 k
1"
#630000
0"
#635000
b1 J
b1 ]
b1 e
b110111 :
b110111 A
b110111 k
b0 X
b0 P
b0 Y
b0 ^
b0 f
1"
#640000
0"
#645000
b0 J
b0 ]
b0 e
b10000 X
b1 P
b1 Y
b1 ^
b1 f
b111000 :
b111000 A
b111000 k
1"
#650000
0"
#655000
b1 J
b1 ]
b1 e
b111001 :
b111001 A
b111001 k
b0 X
b0 P
b0 Y
b0 ^
b0 f
1"
#660000
0"
#665000
b0 J
b0 ]
b0 e
b10000 X
b1 P
b1 Y
b1 ^
b1 f
b111010 :
b111010 A
b111010 k
1"
#670000
0"
#675000
b1 J
b1 ]
b1 e
b111011 :
b111011 A
b111011 k
b0 X
b0 P
b0 Y
b0 ^
b0 f
1"
#680000
0"
#685000
b0 J
b0 ]
b0 e
b10000 X
b1 P
b1 Y
b1 ^
b1 f
b111100 :
b111100 A
b111100 k
1"
#690000
0"
#695000
b1 J
b1 ]
b1 e
b111101 :
b111101 A
b111101 k
b0 X
b0 P
b0 Y
b0 ^
b0 f
1"
#700000
0"
#705000
b0 J
b0 ]
b0 e
b10000 X
b1 P
b1 Y
b1 ^
b1 f
b111110 :
b111110 A
b111110 k
1"
#710000
0"
#715000
b1 J
b1 ]
b1 e
b111111 :
b111111 A
b111111 k
b0 X
b0 P
b0 Y
b0 ^
b0 f
1"
#720000
0"
#725000
b0 J
b0 ]
b0 e
b10000 X
b1 P
b1 Y
b1 ^
b1 f
b1000000 :
b1000000 A
b1000000 k
1"
#730000
0"
#735000
b1 J
b1 ]
b1 e
b1000001 :
b1000001 A
b1000001 k
b0 X
b0 P
b0 Y
b0 ^
b0 f
1"
#740000
0"
#745000
b0 J
b0 ]
b0 e
b10000 X
b1 P
b1 Y
b1 ^
b1 f
b1000010 :
b1000010 A
b1000010 k
1"
#750000
0"
#755000
b1 J
b1 ]
b1 e
b1000011 :
b1000011 A
b1000011 k
b0 X
b0 P
b0 Y
b0 ^
b0 f
1"
#760000
0"
#765000
b0 J
b0 ]
b0 e
b10000 X
b1 P
b1 Y
b1 ^
b1 f
b1000100 :
b1000100 A
b1000100 k
1"
#770000
0"
