project_essential/hardware_modules/registers/project_registers_TB.vcd
$date
	Fri May 15 14:33:31 2026
$end
$version
	Icarus Verilog
$end
$timescale
	1ps
$end
$scope module register_TB $end
$var wire 8 ! Q [7:0] $end
$var reg 8 " D [7:0] $end
$var reg 1 # clk $end
$var reg 1 $ rst $end
$scope module register $end
$var wire 8 % D [7:0] $end
$var wire 1 # clk $end
$var wire 1 $ rst $end
$var reg 8 & Q [7:0] $end
$upscope $end
$upscope $end
$enddefinitions $end
$comment Show the parameter values. $end
$dumpall
$end
#0
$dumpvars
b0 &
bx %
1$
0#
bx "
b0 !
$end
#5000
1#
#10000
0#
0$
#15000
bx !
bx &
1#
#20000
0#
b1111 "
b1111 %
#25000
b1111 !
b1111 &
1#
#30000
b0 !
b0 &
0#
1$
#35000
1#
#40000
0#
0$
#45000
b1111 !
b1111 &
1#
#50000
0#
#55000
1#
#60000
b0 !
b0 &
0#
1$
#65000
1#
#70000
0#
0$
#75000
b1111 !
b1111 &
1#
#80000
0#
#85000
1#
#90000
b0 !
b0 &
0#
1$
#95000
1#
#100000
0#
0$
#105000
b1111 !
b1111 &
1#
#110000
0#
#115000
1#
#120000
b0 !
b0 &
0#
1$
#125000
1#
#130000
0#
0$
#135000
b1111 !
b1111 &
1#
#140000
0#
#145000
1#
#150000
b0 !
b0 &
0#
1$
#155000
1#
#160000
0#
0$
#165000
b1111 !
b1111 &
1#
#170000
0#
#175000
1#
#180000
b0 !
b0 &
0#
1$
#185000
1#
#190000
0#
0$
#195000
b1111 !
b1111 &
1#
#200000
0#
#205000
1#
#210000
b0 !
b0 &
0#
1$
#215000
1#
#220000
0#
0$
#225000
b1111 !
b1111 &
1#
#230000
0#
#235000
1#
#240000
b0 !
b0 &
0#
1$
#245000
1#
#250000
0#
0$
#255000
b1111 !
b1111 &
1#
#260000
0#
#265000
1#
#270000
b0 !
b0 &
0#
1$
#275000
1#
#280000
0#
0$
#285000
b1111 !
b1111 &
1#
#290000
0#
#295000
1#
#300000
b0 !
b0 &
0#
1$
#305000
1#
#310000
0#
0$
#315000
b1111 !
b1111 &
1#
#320000
0#
#325000
1#
#330000
b0 !
b0 &
0#
1$
#335000
1#
#340000
0#
0$
#345000
b1111 !
b1111 &
1#
#350000
0#
#355000
1#
#360000
b0 !
b0 &
0#
1$
#365000
1#
#370000
0#
0$
#375000
b1111 !
b1111 &
1#
#380000
0#
#385000
1#
#390000
b0 !
b0 &
0#
1$
#395000
1#
#400000
0#
0$
#405000
b1111 !
b1111 &
1#
#410000
0#
#415000
1#
#420000
b0 !
b0 &
0#
1$
#425000
1#
#430000
0#
0$
#435000
b1111 !
b1111 &
1#
#440000
0#
#445000
1#
#450000
b0 !
b0 &
0#
1$
#455000
1#
#460000
0#
0$
#465000
b1111 !
b1111 &
1#
#470000
0#
#475000
1#
#480000
b0 !
b0 &
0#
1$
#485000
1#
#490000
0#
0$
#495000
b1111 !
b1111 &
1#
#500000
0#
#505000
1#
#510000
b0 !
b0 &
0#
1$
#515000
1#
#520000
0#
0$
#525000
b1111 !
b1111 &
1#
#530000
0#
#535000
1#
#540000
b0 !
b0 &
0#
1$
#545000
1#
#550000
0#
0$
#555000
b1111 !
b1111 &
1#
#560000
0#
#565000
1#
#570000
b0 !
b0 &
0#
1$
#575000
1#
#580000
0#
0$
#585000
b1111 !
b1111 &
1#
#590000
0#
#595000
1#
#600000
b0 !
b0 &
0#
1$
#605000
1#
#610000
0#
0$
#615000
b1111 !
b1111 &
1#
#620000
0#
#625000
1#
#630000
b0 !
b0 &
0#
1$
#635000
1#
#640000
0#
0$
#645000
b1111 !
b1111 &
1#
#650000
0#
#655000
1#
#660000
b0 !
b0 &
0#
1$
#665000
1#
#670000
0#
0$
#675000
b1111 !
b1111 &
1#
#680000
0#
#685000
1#
#690000
b0 !
b0 &
0#
1$
#695000
1#
#700000
0#
0$
#705000
b1111 !
b1111 &
1#
#710000
0#
#715000
1#
#720000
b0 !
b0 &
0#
1$
#725000
1#
#730000
0#
0$
#735000
b1111 !
b1111 &
1#
#740000
0#
#745000
1#
#750000
b0 !
b0 &
0#
1$
#755000
1#
#760000
0#
0$
#765000
b1111 !
b1111 &
1#
#770000
0#
#775000
1#
#780000
b0 !
b0 &
0#
1$
#785000
1#
#790000
0#
0$
#795000
b1111 !
b1111 &
1#
#800000
0#
#805000
1#
#810000
b0 !
b0 &
0#
1$
#815000
1#
#820000
0#
0$
#825000
b1111 !
b1111 &
1#
#830000
0#
#835000
1#
#840000
b0 !
b0 &
0#
1$
#845000
1#
#850000
0#
0$
#855000
b1111 !
b1111 &
1#
#860000
0#
#865000
1#
#870000
b0 !
b0 &
0#
1$
#875000
1#
#880000
0#
0$
#885000
b1111 !
b1111 &
1#
#890000
0#
#895000
1#
#900000
b0 !
b0 &
0#
1$
#905000
1#
#910000
0#
0$
#915000
b1111 !
b1111 &
1#
#920000
0#
#925000
1#
#930000
b0 !
b0 &
0#
1$
#935000
1#
#940000
0#
0$
#945000
b1111 !
b1111 &
1#
#950000
0#
#955000
1#
#960000
b0 !
b0 &
0#
1$
#965000
1#
#970000
0#
0$
#975000
b1111 !
b1111 &
1#
#980000
0#
#985000
1#
#990000
b0 !
b0 &
0#
1$
#995000
1#
#1000000
0#
0$
