project_extension copy/processor_TB.vcd
$date
	Fri May 29 16:53:46 2026
$end
$version
	Icarus Verilog
$end
$timescale
	1ps
$end
$scope module processor_TB $end
$var reg 8 ! address [7:0] $end
$var reg 1 " clk $end
$var reg 16 # instruction [15:0] $end
$var reg 1 $ reset $end
$var reg 1 % start_PC $end
$var reg 1 & write $end
$var integer 32 ' i [31:0] $end
$scope module my_processor $end
$var wire 16 ( bus [15:0] $end
$var wire 1 " clk $end
$var wire 16 ) program_in [15:0] $end
$var wire 1 $ reset $end
$var wire 1 % start $end
$var wire 1 & write $end
$var wire 8 * write_pmem_address [7:0] $end
$var wire 16 + tri_controller_OH [15:0] $end
$var wire 1 , status_reg_out $end
$var wire 1 - status_reg_en $end
$var wire 1 . read_bus_en $end
$var wire 16 / r_en_OH [15:0] $end
$var wire 1 0 jump_en $end
$var wire 16 1 ir_code [15:0] $end
$var wire 1 2 inc_PC $end
$var wire 1 3 extern_en $end
$var wire 8 4 extern_data [7:0] $end
$var wire 1 5 dmem_out $end
$var wire 1 6 dmem_in $end
$var wire 8 7 dmem_addr [7:0] $end
$var wire 16 8 code [15:0] $end
$var wire 1 9 brsh $end
$var wire 8 : PC_address [7:0] $end
$var wire 1 ; G_out $end
$var wire 1 < G_en $end
$var wire 1 = A_en $end
$var wire 3 > ALU_mux [2:0] $end
$scope module PMEM $end
$var wire 1 " clk $end
$var wire 16 ? data_in [15:0] $end
$var wire 16 @ data_out [15:0] $end
$var wire 1 $ reset $end
$var wire 8 A write_address [7:0] $end
$var wire 1 & write_enable $end
$var wire 8 B read_address [7:0] $end
$var integer 32 C i [31:0] $end
$upscope $end
$scope module control $end
$var wire 1 " clk $end
$var wire 16 D instruction [15:0] $end
$var wire 1 $ reset $end
$var wire 16 E tri_controller_OH [15:0] $end
$var wire 4 F tri_controller [3:0] $end
$var wire 1 , status_reg_out $end
$var wire 1 - status_reg_en $end
$var wire 1 G r_we $end
$var wire 1 H r_re $end
$var wire 16 I r_en_OH [15:0] $end
$var wire 4 J r_en [3:0] $end
$var wire 8 K next_state_wire [7:0] $end
$var wire 1 2 inc_PC $end
$var wire 1 3 extern_en $end
$var wire 8 L extern_data [7:0] $end
$var wire 8 M current_state_wire [7:0] $end
$var wire 1 9 brsh $end
$var wire 1 . PC_read_bus_en $end
$var wire 1 0 PC_jump_en $end
$var wire 1 ; G_out $end
$var wire 1 < G_en $end
$var wire 1 5 DMEM_out $end
$var wire 1 6 DMEM_in $end
$var wire 8 N DMEM_addr [7:0] $end
$var wire 1 = A_en $end
$var wire 3 O ALU_mux [2:0] $end
$scope module decoder_en $end
$var wire 4 P fourbit [3:0] $end
$var wire 1 G en $end
$var reg 16 Q onehot [15:0] $end
$upscope $end
$scope module decoder_tri $end
$var wire 4 R fourbit [3:0] $end
$var wire 1 H en $end
$var reg 16 S onehot [15:0] $end
$upscope $end
$scope module next_state $end
$var wire 16 T inst [15:0] $end
$var wire 1 $ reset $end
$var wire 12 U temp [11:0] $end
$var wire 8 V state [7:0] $end
$var wire 4 W operation [3:0] $end
$var wire 12 X arguments [11:0] $end
$var reg 8 Y n_state [7:0] $end
$upscope $end
$scope module output_signal $end
$var wire 16 Z code [15:0] $end
$var wire 8 [ state [7:0] $end
$var reg 3 \ ALU_mux [2:0] $end
$var reg 1 = A_en $end
$var reg 8 ] DMEM_addr [7:0] $end
$var reg 1 6 DMEM_in $end
$var reg 1 5 DMEM_out $end
$var reg 1 < G_en $end
$var reg 1 ; G_out $end
$var reg 1 0 PC_jump_en $end
$var reg 1 . PC_read_bus_en $end
$var reg 1 9 brsh $end
$var reg 8 ^ extern_data [7:0] $end
$var reg 1 3 extern_en $end
$var reg 1 2 inc_PC $end
$var reg 4 _ r_en [3:0] $end
$var reg 1 H r_re $end
$var reg 1 G r_we $end
$var reg 1 - status_reg_en $end
$var reg 1 , status_reg_out $end
$var reg 4 ` tri_controller_out [3:0] $end
$upscope $end
$scope module st_reg $end
$var wire 8 a D [7:0] $end
$var wire 1 " clk $end
$var wire 1 $ reset $end
$var reg 8 b Q [7:0] $end
$upscope $end
$upscope $end
$scope module inst_PC $end
$var wire 1 c branch_taken $end
$var wire 1 9 brsh $end
$var wire 16 d bus [15:0] $end
$var wire 16 e bus_value [15:0] $end
$var wire 1 " clk $end
$var wire 1 2 inc_PC $end
$var wire 1 0 jump_en $end
$var wire 1 . read_bus_en $end
$var wire 1 $ reset $end
$var wire 1 % start $end
$var reg 1 f N_flag $end
$var reg 8 g address [7:0] $end
$upscope $end
$scope module my_datapath $end
$var wire 3 h ALU_mux [2:0] $end
$var wire 1 = A_en $end
$var wire 8 i DMEM_addr [7:0] $end
$var wire 1 6 DMEM_in $end
$var wire 1 5 DMEM_out $end
$var wire 1 < G_en $end
$var wire 1 ; G_out $end
$var wire 16 j bus [15:0] $end
$var wire 1 " clk $end
$var wire 8 k extern_data [7:0] $end
$var wire 1 3 extern_en $end
$var wire 16 l r_en_OH [15:0] $end
$var wire 1 $ reset $end
$var wire 1 - status_reg_en $end
$var wire 1 , status_reg_out $end
$var wire 16 m tri_controller_OH [15:0] $end
$var wire 16 n status_reg_value [15:0] $end
$var wire 16 o extern_data_padded [15:0] $end
$var wire 16 p G_value [15:0] $end
$var wire 16 q ALU_result [15:0] $end
$var wire 16 r ALU_arg1 [15:0] $end
$scope begin gen_regs[0] $end
$var parameter 2 s i $end
$scope module my_regs $end
$var wire 1 " clk $end
$var wire 16 t d_in [15:0] $end
$var wire 1 u en $end
$var wire 1 $ reset $end
$var reg 16 v q_out [15:0] $end
$upscope $end
$upscope $end
$scope begin gen_regs[1] $end
$var parameter 2 w i $end
$scope module my_regs $end
$var wire 1 " clk $end
$var wire 16 x d_in [15:0] $end
$var wire 1 y en $end
$var wire 1 $ reset $end
$var reg 16 z q_out [15:0] $end
$upscope $end
$upscope $end
$scope begin gen_regs[2] $end
$var parameter 3 { i $end
$scope module my_regs $end
$var wire 1 " clk $end
$var wire 16 | d_in [15:0] $end
$var wire 1 } en $end
$var wire 1 $ reset $end
$var reg 16 ~ q_out [15:0] $end
$upscope $end
$upscope $end
$scope begin gen_regs[3] $end
$var parameter 3 !" i $end
$scope module my_regs $end
$var wire 1 " clk $end
$var wire 16 "" d_in [15:0] $end
$var wire 1 #" en $end
$var wire 1 $ reset $end
$var reg 16 $" q_out [15:0] $end
$upscope $end
$upscope $end
$scope begin gen_regs[4] $end
$var parameter 4 %" i $end
$scope module my_regs $end
$var wire 1 " clk $end
$var wire 16 &" d_in [15:0] $end
$var wire 1 '" en $end
$var wire 1 $ reset $end
$var reg 16 (" q_out [15:0] $end
$upscope $end
$upscope $end
$scope begin gen_regs[5] $end
$var parameter 4 )" i $end
$scope module my_regs $end
$var wire 1 " clk $end
$var wire 16 *" d_in [15:0] $end
$var wire 1 +" en $end
$var wire 1 $ reset $end
$var reg 16 ," q_out [15:0] $end
$upscope $end
$upscope $end
$scope begin gen_regs[6] $end
$var parameter 4 -" i $end
$scope module my_regs $end
$var wire 1 " clk $end
$var wire 16 ." d_in [15:0] $end
$var wire 1 /" en $end
$var wire 1 $ reset $end
$var reg 16 0" q_out [15:0] $end
$upscope $end
$upscope $end
$scope begin gen_regs[7] $end
$var parameter 4 1" i $end
$scope module my_regs $end
$var wire 1 " clk $end
$var wire 16 2" d_in [15:0] $end
$var wire 1 3" en $end
$var wire 1 $ reset $end
$var reg 16 4" q_out [15:0] $end
$upscope $end
$upscope $end
$scope begin gen_regs[8] $end
$var parameter 5 5" i $end
$scope module my_regs $end
$var wire 1 " clk $end
$var wire 16 6" d_in [15:0] $end
$var wire 1 7" en $end
$var wire 1 $ reset $end
$var reg 16 8" q_out [15:0] $end
$upscope $end
$upscope $end
$scope begin gen_regs[9] $end
$var parameter 5 9" i $end
$scope module my_regs $end
$var wire 1 " clk $end
$var wire 16 :" d_in [15:0] $end
$var wire 1 ;" en $end
$var wire 1 $ reset $end
$var reg 16 <" q_out [15:0] $end
$upscope $end
$upscope $end
$scope begin gen_regs[10] $end
$var parameter 5 =" i $end
$scope module my_regs $end
$var wire 1 " clk $end
$var wire 16 >" d_in [15:0] $end
$var wire 1 ?" en $end
$var wire 1 $ reset $end
$var reg 16 @" q_out [15:0] $end
$upscope $end
$upscope $end
$scope begin gen_regs[11] $end
$var parameter 5 A" i $end
$scope module my_regs $end
$var wire 1 " clk $end
$var wire 16 B" d_in [15:0] $end
$var wire 1 C" en $end
$var wire 1 $ reset $end
$var reg 16 D" q_out [15:0] $end
$upscope $end
$upscope $end
$scope begin gen_regs[12] $end
$var parameter 5 E" i $end
$scope module my_regs $end
$var wire 1 " clk $end
$var wire 16 F" d_in [15:0] $end
$var wire 1 G" en $end
$var wire 1 $ reset $end
$var reg 16 H" q_out [15:0] $end
$upscope $end
$upscope $end
$scope begin gen_regs[13] $end
$var parameter 5 I" i $end
$scope module my_regs $end
$var wire 1 " clk $end
$var wire 16 J" d_in [15:0] $end
$var wire 1 K" en $end
$var wire 1 $ reset $end
$var reg 16 L" q_out [15:0] $end
$upscope $end
$upscope $end
$scope begin gen_regs[14] $end
$var parameter 5 M" i $end
$scope module my_regs $end
$var wire 1 " clk $end
$var wire 16 N" d_in [15:0] $end
$var wire 1 O" en $end
$var wire 1 $ reset $end
$var reg 16 P" q_out [15:0] $end
$upscope $end
$upscope $end
$scope begin gen_regs[15] $end
$var parameter 5 Q" i $end
$scope module my_regs $end
$var wire 1 " clk $end
$var wire 16 R" d_in [15:0] $end
$var wire 1 S" en $end
$var wire 1 $ reset $end
$var reg 16 T" q_out [15:0] $end
$upscope $end
$upscope $end
$scope begin gen_tri_bufs[0] $end
$var parameter 2 U" i $end
$scope module tri_bufs $end
$var wire 1 V" en $end
$var wire 16 W" in [15:0] $end
$var wire 16 X" out [15:0] $end
$upscope $end
$upscope $end
$scope begin gen_tri_bufs[1] $end
$var parameter 2 Y" i $end
$scope module tri_bufs $end
$var wire 1 Z" en $end
$var wire 16 [" in [15:0] $end
$var wire 16 \" out [15:0] $end
$upscope $end
$upscope $end
$scope begin gen_tri_bufs[2] $end
$var parameter 3 ]" i $end
$scope module tri_bufs $end
$var wire 1 ^" en $end
$var wire 16 _" in [15:0] $end
$var wire 16 `" out [15:0] $end
$upscope $end
$upscope $end
$scope begin gen_tri_bufs[3] $end
$var parameter 3 a" i $end
$scope module tri_bufs $end
$var wire 1 b" en $end
$var wire 16 c" in [15:0] $end
$var wire 16 d" out [15:0] $end
$upscope $end
$upscope $end
$scope begin gen_tri_bufs[4] $end
$var parameter 4 e" i $end
$scope module tri_bufs $end
$var wire 1 f" en $end
$var wire 16 g" in [15:0] $end
$var wire 16 h" out [15:0] $end
$upscope $end
$upscope $end
$scope begin gen_tri_bufs[5] $end
$var parameter 4 i" i $end
$scope module tri_bufs $end
$var wire 1 j" en $end
$var wire 16 k" in [15:0] $end
$var wire 16 l" out [15:0] $end
$upscope $end
$upscope $end
$scope begin gen_tri_bufs[6] $end
$var parameter 4 m" i $end
$scope module tri_bufs $end
$var wire 1 n" en $end
$var wire 16 o" in [15:0] $end
$var wire 16 p" out [15:0] $end
$upscope $end
$upscope $end
$scope begin gen_tri_bufs[7] $end
$var parameter 4 q" i $end
$scope module tri_bufs $end
$var wire 1 r" en $end
$var wire 16 s" in [15:0] $end
$var wire 16 t" out [15:0] $end
$upscope $end
$upscope $end
$scope begin gen_tri_bufs[8] $end
$var parameter 5 u" i $end
$scope module tri_bufs $end
$var wire 1 v" en $end
$var wire 16 w" in [15:0] $end
$var wire 16 x" out [15:0] $end
$upscope $end
$upscope $end
$scope begin gen_tri_bufs[9] $end
$var parameter 5 y" i $end
$scope module tri_bufs $end
$var wire 1 z" en $end
$var wire 16 {" in [15:0] $end
$var wire 16 |" out [15:0] $end
$upscope $end
$upscope $end
$scope begin gen_tri_bufs[10] $end
$var parameter 5 }" i $end
$scope module tri_bufs $end
$var wire 1 ~" en $end
$var wire 16 !# in [15:0] $end
$var wire 16 "# out [15:0] $end
$upscope $end
$upscope $end
$scope begin gen_tri_bufs[11] $end
$var parameter 5 ## i $end
$scope module tri_bufs $end
$var wire 1 $# en $end
$var wire 16 %# in [15:0] $end
$var wire 16 &# out [15:0] $end
$upscope $end
$upscope $end
$scope begin gen_tri_bufs[12] $end
$var parameter 5 '# i $end
$scope module tri_bufs $end
$var wire 1 (# en $end
$var wire 16 )# in [15:0] $end
$var wire 16 *# out [15:0] $end
$upscope $end
$upscope $end
$scope begin gen_tri_bufs[13] $end
$var parameter 5 +# i $end
$scope module tri_bufs $end
$var wire 1 ,# en $end
$var wire 16 -# in [15:0] $end
$var wire 16 .# out [15:0] $end
$upscope $end
$upscope $end
$scope begin gen_tri_bufs[14] $end
$var parameter 5 /# i $end
$scope module tri_bufs $end
$var wire 1 0# en $end
$var wire 16 1# in [15:0] $end
$var wire 16 2# out [15:0] $end
$upscope $end
$upscope $end
$scope begin gen_tri_bufs[15] $end
$var parameter 5 3# i $end
$scope module tri_bufs $end
$var wire 1 4# en $end
$var wire 16 5# in [15:0] $end
$var wire 16 6# out [15:0] $end
$upscope $end
$upscope $end
$scope module A_reg $end
$var wire 1 " clk $end
$var wire 16 7# d_in [15:0] $end
$var wire 1 = en $end
$var wire 1 $ reset $end
$var reg 16 8# q_out [15:0] $end
$upscope $end
$scope module G_reg $end
$var wire 1 " clk $end
$var wire 1 < en $end
$var wire 1 $ reset $end
$var wire 16 9# d_in [15:0] $end
$var reg 16 :# q_out [15:0] $end
$upscope $end
$scope module G_tri_state $end
$var wire 1 ; en $end
$var wire 16 ;# in [15:0] $end
$var wire 16 <# out [15:0] $end
$upscope $end
$scope module dmem_memory $end
$var wire 8 =# address [7:0] $end
$var wire 1 " clk $end
$var wire 16 ># d_in [15:0] $end
$var wire 16 ?# d_out [15:0] $end
$var wire 1 5 re $end
$var wire 1 6 we $end
$upscope $end
$scope module extern_tri $end
$var wire 1 3 en $end
$var wire 16 @# in [15:0] $end
$var wire 16 A# out [15:0] $end
$upscope $end
$scope module my_ALU $end
$var wire 16 B# A [15:0] $end
$var wire 3 C# ALU_sig [2:0] $end
$var wire 16 D# B [15:0] $end
$var reg 16 E# result [15:0] $end
$upscope $end
$scope module sreg_tri_state $end
$var wire 1 , en $end
$var wire 16 F# out [15:0] $end
$var wire 16 G# in [15:0] $end
$upscope $end
$scope module status_reg $end
$var wire 1 " clk $end
$var wire 16 H# d_in [15:0] $end
$var wire 1 - en $end
$var wire 1 $ reset $end
$var reg 16 I# q_out [15:0] $end
$upscope $end
$upscope $end
$scope module my_inst_reg $end
$var wire 1 " clk $end
$var wire 16 J# d_in [15:0] $end
$var wire 1 $ reset $end
$var reg 16 K# q_out [15:0] $end
$upscope $end
$upscope $end
$upscope $end
$enddefinitions $end
$comment Show the parameter values. $end
$dumpall
b1111 3#
b1110 /#
b1101 +#
b1100 '#
b1011 ##
b1010 }"
b1001 y"
b1000 u"
b111 q"
b110 m"
b101 i"
b100 e"
b11 a"
b10 ]"
b1 Y"
b0 U"
b1111 Q"
b1110 M"
b1101 I"
b1100 E"
b1011 A"
b1010 ="
b1001 9"
b1000 5"
b111 1"
b110 -"
b101 )"
b100 %"
b11 !"
b10 {
b1 w
b0 s
$end
#0
$dumpvars
b0 K#
b0 J#
b0 I#
bz H#
b0 G#
bz F#
bx E#
bz D#
b0 C#
b0 B#
bz A#
b0 @#
bz ?#
bz >#
b0 =#
bz <#
b0 ;#
b0 :#
bx 9#
b0 8#
bz 7#
bz 6#
b0 5#
04#
bz 2#
b0 1#
00#
bz .#
b0 -#
0,#
bz *#
b0 )#
0(#
bz &#
b0 %#
0$#
bz "#
b0 !#
0~"
bz |"
b0 {"
0z"
bz x"
b0 w"
0v"
bz t"
b0 s"
0r"
bz p"
b0 o"
0n"
bz l"
b0 k"
0j"
bz h"
b0 g"
0f"
bz d"
b0 c"
0b"
bz `"
b0 _"
0^"
bz \"
b0 ["
0Z"
bz X"
b0 W"
0V"
b0 T"
0S"
bz R"
b0 P"
0O"
bz N"
b0 L"
0K"
bz J"
b0 H"
0G"
bz F"
b0 D"
0C"
bz B"
b0 @"
0?"
bz >"
b0 <"
0;"
bz :"
b0 8"
07"
bz 6"
b0 4"
03"
bz 2"
b0 0"
0/"
bz ."
b0 ,"
0+"
bz *"
b0 ("
0'"
bz &"
b0 $"
0#"
bz ""
b0 ~
0}
bz |
b0 z
0y
bz x
b0 v
0u
bz t
b0 r
bx q
b0 p
b0 o
b0 n
b0 m
b0 l
b0 k
bz j
b0 i
b0 h
b0 g
0f
bz e
bz d
0c
b0 b
b0 a
b0 `
b0 _
b0 ^
b0 ]
b0 \
b0 [
b0 Z
b0 Y
b0 X
b0 W
b0 V
b0 U
b0 T
b0 S
b0 R
b0 Q
b0 P
b0 O
b0 N
b0 M
b0 L
b0 K
b0 J
b0 I
0H
0G
b0 F
b0 E
b0 D
b100000000 C
b0 B
b0 A
b0 @
b0 ?
b0 >
0=
0<
0;
b0 :
09
b0 8
b0 7
06
05
b0 4
03
02
b0 1
00
b0 /
0.
0-
0,
b0 +
b0 *
b0 )
bz (
bx '
0&
0%
1$
b0 #
0"
b0 !
$end
#5000
b100000000 C
1"
#10000
0"
#15000
b100000000 C
1"
#20000
b1 K
b1 Y
b1 a
0"
b0 '
1&
0$
#25000
b101 q
b101 9#
b101 E#
b101 e
b101 (
b101 d
b101 j
b101 t
b101 x
b101 |
b101 ""
b101 &"
b101 *"
b101 ."
b101 2"
b101 6"
b101 :"
b101 >"
b101 B"
b101 F"
b101 J"
b101 N"
b101 R"
b101 X"
b101 \"
b101 `"
b101 d"
b101 h"
b101 l"
b101 p"
b101 t"
b101 x"
b101 |"
b101 "#
b101 &#
b101 *#
b101 .#
b101 2#
b101 6#
b101 7#
b101 <#
b101 >#
b101 ?#
b101 A#
b101 D#
b101 F#
b101 H#
1y
b10 /
b10 I
b10 Q
b10 l
b0 K
b0 Y
b0 a
b100000101 X
12
13
b101 o
b101 @#
b101 4
b101 L
b101 ^
b101 k
b1 J
b1 P
b1 _
1G
b10000 U
b1 M
b1 V
b1 [
b1 b
b100000101 8
b100000101 @
b100000101 D
b100000101 T
b100000101 Z
b100000101 J#
b1 '
b100000101 #
b100000101 )
b100000101 ?
1"
#30000
0"
#35000
bx q
bx 9#
bx E#
0y
bz e
bz (
bz d
bz j
bz t
bz x
bz |
bz ""
bz &"
bz *"
bz ."
bz 2"
bz 6"
bz :"
bz >"
bz B"
bz F"
bz J"
bz N"
bz R"
bz X"
bz \"
bz `"
bz d"
bz h"
bz l"
bz p"
bz t"
bz x"
bz |"
bz "#
bz &#
bz *#
bz .#
bz 2#
bz 6#
bz 7#
bz <#
bz >#
bz ?#
bz A#
bz D#
bz F#
bz H#
b0 /
b0 I
b0 Q
b0 l
b1000001010 X
b1 K
b1 Y
b1 a
03
b0 o
b0 @#
b0 4
b0 L
b0 ^
b0 k
02
0G
b0 J
b0 P
b0 _
b1000001010 8
b1000001010 @
b1000001010 D
b1000001010 T
b1000001010 Z
b1000001010 J#
b1 :
b1 B
b1 g
b100000101 1
b100000101 K#
b0 U
b0 M
b0 V
b0 [
b0 b
b101 z
b101 ["
b10 '
b1000001010 #
b1000001010 )
b1000001010 ?
b1 !
b1 *
b1 A
1"
#40000
0"
#45000
b1010 q
b1010 9#
b1010 E#
b1010 e
b1010 (
b1010 d
b1010 j
b1010 t
b1010 x
b1010 |
b1010 ""
b1010 &"
b1010 *"
b1010 ."
b1010 2"
b1010 6"
b1010 :"
b1010 >"
b1010 B"
b1010 F"
b1010 J"
b1010 N"
b1010 R"
b1010 X"
b1010 \"
b1010 `"
b1010 d"
b1010 h"
b1010 l"
b1010 p"
b1010 t"
b1010 x"
b1010 |"
b1010 "#
b1010 &#
b1010 *#
b1010 .#
b1010 2#
b1010 6#
b1010 7#
b1010 <#
b1010 >#
b1010 ?#
b1010 A#
b1010 D#
b1010 F#
b1010 H#
1}
b100 /
b100 I
b100 Q
b100 l
b0 K
b0 Y
b0 a
12
13
b1010 o
b1010 @#
b1010 4
b1010 L
b1010 ^
b1010 k
b10 J
b10 P
b10 _
1G
b10000 U
b1 M
b1 V
b1 [
b1 b
b1000001010 1
b1000001010 K#
b11 '
b1001001000010000 #
b1001001000010000 )
b1001001000010000 ?
b10 !
b10 *
b10 A
1"
#50000
0"
#55000
bx q
bx 9#
bx E#
0}
bz e
bz (
bz d
bz j
bz t
bz x
bz |
bz ""
bz &"
bz *"
bz ."
bz 2"
bz 6"
bz :"
bz >"
bz B"
bz F"
bz J"
bz N"
bz R"
bz X"
bz \"
bz `"
bz d"
bz h"
bz l"
bz p"
bz t"
bz x"
bz |"
bz "#
bz &#
bz *#
bz .#
bz 2#
bz 6#
bz 7#
bz <#
bz >#
bz ?#
bz A#
bz D#
bz F#
bz H#
b0 /
b0 I
b0 Q
b0 l
b1001 W
b1000010000 X
b10010 K
b10010 Y
b10010 a
03
b0 o
b0 @#
b0 4
b0 L
b0 ^
b0 k
02
0G
b0 J
b0 P
b0 _
b1001001000010000 8
b1001001000010000 @
b1001001000010000 D
b1001001000010000 T
b1001001000010000 Z
b1001001000010000 J#
b10 :
b10 B
b10 g
b1001 U
b0 M
b0 V
b0 [
b0 b
b1010 ~
b1010 _"
b100 '
b1010000000000010 #
b1010000000000010 )
b1010000000000010 ?
b11 !
b11 *
b11 A
1"
#60000
0"
#65000
b1010 q
b1010 9#
b1010 E#
b1010 e
b1010 (
b1010 d
b1010 j
b1010 t
b1010 x
b1010 |
b1010 ""
b1010 &"
b1010 *"
b1010 ."
b1010 2"
b1010 6"
b1010 :"
b1010 >"
b1010 B"
b1010 F"
b1010 J"
b1010 N"
b1010 R"
b1010 X"
b1010 \"
b1010 `"
b1010 d"
b1010 h"
b1010 l"
b1010 p"
b1010 t"
b1010 x"
b1010 |"
b1010 "#
b1010 &#
b1010 *#
b1010 .#
b1010 2#
b1010 6#
b1010 7#
b1010 <#
b1010 >#
b1010 ?#
b1010 A#
b1010 D#
b1010 F#
b1010 H#
1^"
b100 +
b100 E
b100 S
b100 m
b10011 K
b10011 Y
b10011 a
1=
b10 F
b10 R
b10 `
1H
b100101001 U
b10010 M
b10010 V
b10010 [
b10010 b
b1001001000010000 1
b1001001000010000 K#
b101 '
b111111111 #
b111111111 )
b111111111 ?
b100 !
b100 *
b100 A
1"
#70000
0"
#75000
b101 q
b101 9#
b101 E#
b101 e
b101 (
b101 d
b101 j
b101 t
b101 x
b101 |
b101 ""
b101 &"
b101 *"
b101 ."
b101 2"
b101 6"
b101 :"
b101 >"
b101 B"
b101 F"
b101 J"
b101 N"
b101 R"
b101 X"
b101 \"
b101 `"
b101 d"
b101 h"
b101 l"
b101 p"
b101 t"
b101 x"
b101 |"
b101 "#
b101 &#
b101 *#
b101 .#
b101 2#
b101 6#
b101 7#
b101 <#
b101 >#
b101 ?#
b101 A#
b101 D#
b101 F#
b101 H#
1Z"
0^"
b10 +
b10 E
b10 S
b10 m
b10100 K
b10100 Y
b10100 a
b1 >
b1 O
b1 \
b1 h
b1 C#
1<
0=
1H
b1 F
b1 R
b1 `
b100111001 U
b10011 M
b10011 V
b10011 [
b10011 b
b1010 r
b1010 8#
b1010 B#
b110 '
b1001000100100000 #
b1001000100100000 )
b1001000100100000 ?
b101 !
b101 *
b101 A
1"
#80000
0"
#85000
b1111 q
b1111 9#
b1111 E#
0Z"
b0 +
b0 E
b0 S
b0 m
b0 K
b0 Y
b0 a
12
1;
1-
b0 >
b0 O
b0 \
b0 h
b0 C#
0<
0H
b0 F
b0 R
b0 `
b101 p
b101 :#
b101 ;#
b101001001 U
b10100 M
b10100 V
b10100 [
b10100 b
b111 '
b1010000000000010 #
b1010000000000010 )
b1010000000000010 ?
b110 !
b110 *
b110 A
1"
#90000
0"
#95000
bx q
bx 9#
bx E#
bz e
bz (
bz d
bz j
bz t
bz x
bz |
bz ""
bz &"
bz *"
bz ."
bz 2"
bz 6"
bz :"
bz >"
bz B"
bz F"
bz J"
bz N"
bz R"
bz X"
bz \"
bz `"
bz d"
bz h"
bz l"
bz p"
bz t"
bz x"
bz |"
bz "#
bz &#
bz *#
bz .#
bz 2#
bz 6#
bz 7#
bz <#
bz >#
bz ?#
bz A#
bz D#
bz F#
bz H#
b1010 W
b10 X
b10101 K
b10101 Y
b10101 a
02
0-
0;
b1010000000000010 8
b1010000000000010 @
b1010000000000010 D
b1010000000000010 T
b1010000000000010 Z
b1010000000000010 J#
b11 :
b11 B
b11 g
b1010 U
b0 M
b0 V
b0 [
b0 b
b101 n
b101 G#
b101 I#
b1000 '
b1000000111 #
b1000000111 )
b1000000111 ?
b111 !
b111 *
b111 A
1"
#100000
0"
#105000
b1111 q
b1111 9#
b1111 E#
b101 e
b101 (
b101 d
b101 j
b101 t
b101 x
b101 |
b101 ""
b101 &"
b101 *"
b101 ."
b101 2"
b101 6"
b101 :"
b101 >"
b101 B"
b101 F"
b101 J"
b101 N"
b101 R"
b101 X"
b101 \"
b101 `"
b101 d"
b101 h"
b101 l"
b101 p"
b101 t"
b101 x"
b101 |"
b101 "#
b101 &#
b101 *#
b101 .#
b101 2#
b101 6#
b101 7#
b101 <#
b101 >#
b101 ?#
b101 A#
b101 D#
b101 F#
b101 H#
b10110 K
b10110 Y
b10110 a
1.
1,
b101011010 U
b10101 M
b10101 V
b10101 [
b10101 b
b1010000000000010 1
b1010000000000010 K#
b1001 '
b1000000000000010 #
b1000000000000010 )
b1000000000000010 ?
b1000 !
b1000 *
b1000 A
1"
#110000
0"
#115000
b1100 q
b1100 9#
b1100 E#
b10 e
b10 (
b10 d
b10 j
b10 t
b10 x
b10 |
b10 ""
b10 &"
b10 *"
b10 ."
b10 2"
b10 6"
b10 :"
b10 >"
b10 B"
b10 F"
b10 J"
b10 N"
b10 R"
b10 X"
b10 \"
b10 `"
b10 d"
b10 h"
b10 l"
b10 p"
b10 t"
b10 x"
b10 |"
b10 "#
b10 &#
b10 *#
b10 .#
b10 2#
b10 6#
b10 7#
b10 <#
b10 >#
b10 ?#
b10 A#
b10 D#
b10 F#
b10 H#
1c
b0 K
b0 Y
b0 a
12
13
b10 o
b10 @#
b10 4
b10 L
b10 ^
b10 k
19
0.
0,
b101101010 U
b10110 M
b10110 V
b10110 [
b10110 b
b1010 '
b110101010 #
b110101010 )
b110101010 ?
b1001 !
b1001 *
b1001 A
1"
#120000
0"
#125000
bx q
bx 9#
bx E#
bz e
bz (
bz d
bz j
bz t
bz x
bz |
bz ""
bz &"
bz *"
bz ."
bz 2"
bz 6"
bz :"
bz >"
bz B"
bz F"
bz J"
bz N"
bz R"
bz X"
bz \"
bz `"
bz d"
bz h"
bz l"
bz p"
bz t"
bz x"
bz |"
bz "#
bz &#
bz *#
bz .#
bz 2#
bz 6#
bz 7#
bz <#
bz >#
bz ?#
bz A#
bz D#
bz F#
bz H#
0c
b10010 K
b10010 Y
b10010 a
b1001 W
b100100000 X
03
b0 o
b0 @#
b0 4
b0 L
b0 ^
b0 k
09
02
b1001 U
b0 M
b0 V
b0 [
b0 b
b1001000100100000 8
b1001000100100000 @
b1001000100100000 D
b1001000100100000 T
b1001000100100000 Z
b1001000100100000 J#
b101 :
b101 B
b101 g
b1011 '
b1000000000000000 #
b1000000000000000 )
b1000000000000000 ?
b1010 !
b1010 *
b1010 A
1"
#130000
0"
#135000
b1111 q
b1111 9#
b1111 E#
b101 e
b101 (
b101 d
b101 j
b101 t
b101 x
b101 |
b101 ""
b101 &"
b101 *"
b101 ."
b101 2"
b101 6"
b101 :"
b101 >"
b101 B"
b101 F"
b101 J"
b101 N"
b101 R"
b101 X"
b101 \"
b101 `"
b101 d"
b101 h"
b101 l"
b101 p"
b101 t"
b101 x"
b101 |"
b101 "#
b101 &#
b101 *#
b101 .#
b101 2#
b101 6#
b101 7#
b101 <#
b101 >#
b101 ?#
b101 A#
b101 D#
b101 F#
b101 H#
1Z"
b10 +
b10 E
b10 S
b10 m
b10011 K
b10011 Y
b10011 a
1=
b1 F
b1 R
b1 `
1H
b1001000100100000 1
b1001000100100000 K#
b100101001 U
b10010 M
b10010 V
b10010 [
b10010 b
0&
1"
#140000
0"
#145000
b101 q
b101 9#
b101 E#
b0 e
b0 (
b0 d
b0 j
b0 t
b0 x
b0 |
b0 ""
b0 &"
b0 *"
b0 ."
b0 2"
b0 6"
b0 :"
b0 >"
b0 B"
b0 F"
b0 J"
b0 N"
b0 R"
b0 X"
b0 \"
b0 `"
b0 d"
b0 h"
b0 l"
b0 p"
b0 t"
b0 x"
b0 |"
b0 "#
b0 &#
b0 *#
b0 .#
b0 2#
b0 6#
b0 7#
b0 <#
b0 >#
b0 ?#
b0 A#
b0 D#
b0 F#
b0 H#
1V"
0Z"
b1 +
b1 E
b1 S
b1 m
b10100 K
b10100 Y
b10100 a
b0 W
b100000101 X
b1 >
b1 O
b1 \
b1 h
b1 C#
1<
0=
1H
b0 F
b0 R
b0 `
b101 r
b101 8#
b101 B#
b100110000 U
b10011 M
b10011 V
b10011 [
b10011 b
b100000101 8
b100000101 @
b100000101 D
b100000101 T
b100000101 Z
b100000101 J#
b0 :
b0 B
b0 g
1%
1"
#150000
0"
